<?xml version="1.0" encoding="UTF-8"?>
<!DOCTYPE svg PUBLIC "-//W3C//DTD SVG 1.1//EN" "http://www.w3.org/Graphics/SVG/1.1/DTD/svg11.dtd">
<!-- Creator: CorelDRAW 2021 (64-Bit) -->
<svg xmlns="http://www.w3.org/2000/svg" xml:space="preserve" width="0.609425in" height="0.606457in" version="1.1" style="shape-rendering:geometricPrecision; text-rendering:geometricPrecision; image-rendering:optimizeQuality; fill-rule:evenodd; clip-rule:evenodd"
viewBox="0 0 68.65 68.31"
 xmlns:xlink="http://www.w3.org/1999/xlink"
 xmlns:xodm="http://www.corel.com/coreldraw/odm/2003">
 <defs>
  <style type="text/css">
   <![CDATA[
    .fil0 {fill:black;fill-rule:nonzero}
   ]]>
  </style>
 </defs>
 <g id="Layer_x0020_1">
  <metadata id="CorelCorpID_0Corel-Layer"/>
  <g id="_1827983188640">
   <g>
    <polygon class="fil0" points="9.56,0 9.56,68.31 -0,68.31 -0,0 "/>
    <polygon class="fil0" points="21.43,0 21.43,68.31 11.88,68.31 11.88,0 "/>
   </g>
   <polygon class="fil0" points="33.22,0 33.22,68.31 23.66,68.31 23.66,0 "/>
  </g>
  <polygon class="fil0" points="44.98,0 44.98,68.31 35.43,68.31 35.43,0 "/>
  <polygon class="fil0" points="56.86,0 56.86,68.31 47.3,68.31 47.3,0 "/>
  <polygon class="fil0" points="68.65,0 68.65,68.31 59.09,68.31 59.09,0 "/>
 </g>
</svg>
