<?xml version="1.0" encoding="UTF-8"?>
<!DOCTYPE svg PUBLIC "-//W3C//DTD SVG 1.1//EN" "http://www.w3.org/Graphics/SVG/1.1/DTD/svg11.dtd">
<!-- Creator: CorelDRAW 2021 (64-Bit) -->
<svg xmlns="http://www.w3.org/2000/svg" xml:space="preserve" width="0.609429in" height="0.606457in" version="1.1" style="shape-rendering:geometricPrecision; text-rendering:geometricPrecision; image-rendering:optimizeQuality; fill-rule:evenodd; clip-rule:evenodd"
viewBox="0 0 68.65 68.31"
 xmlns:xlink="http://www.w3.org/1999/xlink"
 xmlns:xodm="http://www.corel.com/coreldraw/odm/2003">
 <defs>
  <style type="text/css">
   <![CDATA[
    .fil0 {fill:black;fill-rule:nonzero}
   ]]>
  </style>
 </defs>
 <g id="Layer_x0020_1">
  <metadata id="CorelCorpID_0Corel-Layer"/>
  <g id="_1827975070656">
   <g>
    <polygon class="fil0" points="14.58,0 14.58,68.31 -0,68.31 -0,0 "/>
    <polygon class="fil0" points="32.71,0 32.71,68.31 18.12,68.31 18.12,0 "/>
   </g>
   <polygon class="fil0" points="50.69,0 50.69,68.31 36.11,68.31 36.11,0 "/>
  </g>
  <polygon class="fil0" points="68.65,0 68.65,68.31 54.06,68.31 54.06,0 "/>
 </g>
</svg>
